﻿Fiber diameter,um,,,,,,,,,,,,,,,,
3M_1000MPR,3M_1900MPR,3M_300MPR,3M_N95,Arauco_BKP,Arauco_EKP,Arauco_UKP,Gerson_N95,HEPA,HV_PN13015AP2,HV_TSP050PLUS,HV_TSP050YA002,HV_TSP100NS015,KC_47117,cotton,polyester,tyvek,HaylardH600
21.1,15.6,24.7,25,38.9,31.3,36.5,21.4,3.53,3.86,19.1,23.5,9.9,5.11,14.3,9.48,8.5,19.6
21.8,17.2,23.5,19.2,35.9,17.2,21.6,20.2,2.84,2.07,10.5,18.2,16.6,2.58,20.1,7.97,3.07,18.9
18.4,17.1,21.5,20.3,19.8,15.9,41.9,20.8,1.02,5.77,18.7,23.5,21.2,8.57,12.6,10.4,12.9,17.6
17.9,15.8,26.9,,25.3,11.1,54,19.1,3.41,2.9,17.5,23.7,19.4,3.16,11.5,12.6,7.51,17.6
17.8,16.1,22.2,,43,8.77,28.4,25,1.44,1.97,20.1,11.5,10.1,5.96,20.3,9.69,4.49,19
20.5,15.6,21.7,,30.7,11,44.5,19,0.458,2.31,19,21.2,22.6,8.65,14.9,8.6,8.28,4.18
20,16.3,24.3,,44.7,15.3,33.6,23.5,0.397,2.76,16.9,18.5,20.3,2.28,14.5,10.6,7.21,5.04
16.9,14.3,24.1,,44.7,27.7,16.3,19.3,3,2.97,16,11.5,19.4,6.17,14.1,12.6,9.56,19
21.3,16.3,23.2,,21.3,13,36.5,20.3,0.458,2.76,18.2,22.5,20.3,2.82,16.7,8.6,24.1,3.65
19.9,15.2,26.1,,31.1,20.1,24.9,23.2,1.79,1.17,16.5,19.6,16.4,34.8,14.4,6.87,7.7,18.2
16.5,17.2,24.3,,31.2,17.7,22.2,21.5,3.53,4.4,15.2,22.4,19.2,47.5,18.9,6.87,1.14,6.21
13.5,16.3,24.9,,31.1,16.3,30.7,19.2,,4.62,24.8,24.6,23.5,19.2,13.3,9.52,5.54,2.67
16.6,15,24.5,,22,17.6,33.6,16.7,,3,10.9,23.9,17.2,20.6,12.3,7.5,3.53,2.83
12.9,16.5,26.2,,23.1,24.4,28.4,22.8,,3.48,17.5,23.1,22.5,29,14.6,13.1,11.6,19.1
18.6,16.4,22.5,,32.7,15.9,44.5,29.3,,6.3,18.4,22.5,19.2,,16.1,14,6.56,7.59
16.9,16.7,26.1,,27.8,11.7,30.7,21.3,,3.14,14.7,16.1,23.4,,18.3,14,5.48,1.77
19.4,15.9,23.4,,13.4,9.4,43.1,21.5,,2.73,16.9,,21.8,,15.6,10.6,4.84,2.56
18.9,16.2,21.4,,18.2,19.3,51,21.8,,6.96,19,,12.3,,24.7,9.49,24.8,2.43
12.3,15.5,23.4,,17,17,45.9,28.8,,4,,,16.3,,19.9,10.2,,2.56
19,15.5,,,20.6,7.45,23.8,14.5,,3.38,,,23,,10.9,9.26,,4.13
16.9,16.1,,,44.7,15.5,33.5,5.01,,2.68,,,14.4,,13.7,13,,2.96
18.2,16.4,,,41.2,11.2,42.8,3.11,,6.65,,,21.5,,11.8,12.7,,2.52
15.5,14.4,,,40.2,18.9,44.3,16.1,,2.62,,,18.1,,16.7,,,2.88
20.2,15.6,,,55.7,13.7,45.1,7.51,,2.13,,,15,,18,,,7.59
19.3,15.2,,,39.3,10.2,55.4,12.2,,2.94,,,19,,14.6,,,1.77
18.5,15.9,,,47.7,14.8,30.7,7.4,,6.9,,,16.3,,,,,3.45
21.5,15.8,,,43.4,15.1,53.8,,,,,,17.3,,,,,20.7
19.5,,,,29.4,21.5,22,,,,,,12.5,,,,,4.14
18.1,,,,41.5,10.2,21.4,,,,,,19.5,,,,,19.7
,,,,38.3,11.1,31.4,,,,,,,,,,,25.9
,,,,33.3,19.3,33.7,,,,,,,,,,,34.1
,,,,35.9,15.2,25.9,,,,,,,,,,,19.1
,,,,48,11.7,27.6,,,,,,,,,,,19
,,,,49.6,19.3,18.8,,,,,,,,,,,17.9
,,,,59.5,18.1,8.62,,,,,,,,,,,22.1
,,,,37.8,10.9,57.7,,,,,,,,,,,18.3
,,,,37.8,15.3,48.9,,,,,,,,,,,19.1
,,,,38.6,7.29,46.6,,,,,,,,,,,20.4
,,,,38.3,,35.4,,,,,,,,,,,2.5
,,,,56.9,,26.3,,,,,,,,,,,6.83
,,,,28.4,,32,,,,,,,,,,,1.89
,,,,52.2,,44.6,,,,,,,,,,,1.62
,,,,,,31.4,,,,,,,,,,,2.28
,,,,,,32,,,,,,,,,,,2.24
,,,,,,43.8,,,,,,,,,,,1.66
,,,,,,42.7,,,,,,,,,,,2.13
,,,,,,37.3,,,,,,,,,,,